/* XPM */
static char * title_active_xpm[] = {
"6 43 3 1",
"       c None",
".      c #C0C0FF s active_color_1",
"@      c #C0C0FF s active_color_1",
"@@@@@@@@",
"@@@@@@@@",
"........",
"........",
"........",
"........",
"........",
"........",
"........",
"........",
"........",
"........",
"........",
"........",
"........",
"........",
"........",
"........",
"........",
"........",
"........",
"........",
"........",
"........",
"........",
"........",
"........",
"........",
"........",
"........",
"........",
"........",
"........",
"........",
"........",
"........",
"........",
"........",
"........",
"........",
"........",
"........",
"........"};
